
./octez-client --protocol ProxfordLcjScHFgpTURyTjcKR88D5juu1jGgT18pPUoGTVgxiA --mode mockup --no-base-dir-warnings run script michelson_test_scripts/opcodes/or_binary.tz on storage None and input '(Pair 14 1)' --level 1 --trace-stack
storage
  (Some 15)
emitted operations
  
big_map diff
  
trace
  - location: 10 (just consumed gas: 6.141)
    [ (Pair (Pair 14 1) None) ]
  - location: 10 (just consumed gas: 0.010)
    [ (Pair 14 1) ]
  - location: 11 (just consumed gas: 0.010)
    [ 14
      1 ]
  - location: 12 (just consumed gas: 0.035)
    [ 15 ]
  - location: 13 (just consumed gas: 0.010)
    [ (Some 15) ]
  - location: 14 (just consumed gas: 0.010)
    [ {}
      (Some 15) ]
  - location: 16 (just consumed gas: 0.010)
    [ (Pair {} (Some 15)) ]

