
./octez-client --protocol ProxfordLcjScHFgpTURyTjcKR88D5juu1jGgT18pPUoGTVgxiA --mode mockup --no-base-dir-warnings run script michelson_test_scripts/opcodes/self_address.tz on storage Unit and input Unit --level 1 --trace-stack
storage
  Unit
emitted operations
  
big_map diff
  
trace
  - location: 7 (just consumed gas: 13.456)
    [ (Pair Unit Unit) ]
  - location: 7 (just consumed gas: 0.010)
    [  ]
  - location: 8 (just consumed gas: 0.010)
    [ { DROP ; SELF_ADDRESS } ]
  - location: 14 (just consumed gas: 0.010)
    [ Unit
      { DROP ; SELF_ADDRESS } ]
  - location: 12 (just consumed gas: 0.010)
    [  ]
  - location: 13 (just consumed gas: 0.010)
    [ "KT1BEqzn5Wx8uJrZNvuS9DVHmLvG9td3fDLi" ]
  - location: 15 (just consumed gas: 0.025)
    [ "KT1BEqzn5Wx8uJrZNvuS9DVHmLvG9td3fDLi" ]
  - location: 16 (just consumed gas: 0.010)
    [ "KT1BEqzn5Wx8uJrZNvuS9DVHmLvG9td3fDLi"
      "KT1BEqzn5Wx8uJrZNvuS9DVHmLvG9td3fDLi" ]
  - location: 17 (just consumed gas: 0.010)
    [ "KT1BEqzn5Wx8uJrZNvuS9DVHmLvG9td3fDLi"
      "KT1BEqzn5Wx8uJrZNvuS9DVHmLvG9td3fDLi" ]
  - location: 20 (just consumed gas: 0.036)
    [ 0 ]
  - location: 21 (just consumed gas: 0.010)
    [ True ]
  - location: 22 (just consumed gas: 0)
    [  ]
  - location: 22 (just consumed gas: 0.015)
    [  ]
  - location: 28 (just consumed gas: 0.010)
    [ Unit ]
  - location: 29 (just consumed gas: 0.010)
    [ {}
      Unit ]
  - location: 31 (just consumed gas: 0.010)
    [ (Pair {} Unit) ]

