
./octez-client --protocol ProxfordLcjScHFgpTURyTjcKR88D5juu1jGgT18pPUoGTVgxiA --mode mockup --no-base-dir-warnings run script michelson_test_scripts/opcodes/set_member.tz on storage '(Pair { "Hi" } None)' and input '"Hi"' --level 1 --trace-stack
storage
  (Pair { "Hi" } (Some True))
emitted operations
  
big_map diff
  
trace
  - location: 11 (just consumed gas: 13.992)
    [ (Pair "Hi" { "Hi" } None) ]
  - location: 11 (just consumed gas: 0.010)
    [ (Pair "Hi" { "Hi" } None)
      (Pair "Hi" { "Hi" } None) ]
  - location: 12 (just consumed gas: 0.010)
    [ (Pair "Hi" { "Hi" } None)
      (Pair "Hi" { "Hi" } None)
      (Pair "Hi" { "Hi" } None) ]
  - location: 13 (just consumed gas: 0.010)
    [ "Hi"
      (Pair "Hi" { "Hi" } None)
      (Pair "Hi" { "Hi" } None) ]
  - location: 14 (just consumed gas: 0)
    [ (Pair "Hi" { "Hi" } None)
      (Pair "Hi" { "Hi" } None) ]
  - location: 17 (just consumed gas: 0.010)
    [ (Pair { "Hi" } None)
      (Pair "Hi" { "Hi" } None) ]
  - location: 18 (just consumed gas: 0.010)
    [ { "Hi" }
      (Pair "Hi" { "Hi" } None) ]
  - location: 14 (just consumed gas: 0.025)
    [ "Hi"
      { "Hi" }
      (Pair "Hi" { "Hi" } None) ]
  - location: 19 (just consumed gas: 0.119)
    [ True
      (Pair "Hi" { "Hi" } None) ]
  - location: 20 (just consumed gas: 0.010)
    [ (Some True)
      (Pair "Hi" { "Hi" } None) ]
  - location: 21 (just consumed gas: 0)
    [ (Pair "Hi" { "Hi" } None) ]
  - location: 24 (just consumed gas: 0.010)
    [ (Pair { "Hi" } None) ]
  - location: 25 (just consumed gas: 0.010)
    [ { "Hi" } ]
  - location: 21 (just consumed gas: 0.025)
    [ (Some True)
      { "Hi" } ]
  - location: 26 (just consumed gas: 0.010)
    [ { "Hi" }
      (Some True) ]
  - location: 27 (just consumed gas: 0.010)
    [ (Pair { "Hi" } (Some True)) ]
  - location: 28 (just consumed gas: 0.010)
    [ {}
      (Pair { "Hi" } (Some True)) ]
  - location: 30 (just consumed gas: 0.010)
    [ (Pair {} { "Hi" } (Some True)) ]

