
./octez-client --protocol ProxfordLcjScHFgpTURyTjcKR88D5juu1jGgT18pPUoGTVgxiA --mode mockup --no-base-dir-warnings run script michelson_test_scripts/opcodes/bls12_381_fr_z_int.tz on storage 0x0100000000000000000000000000000000000000000000000000000000000000 and input 52435875175126190479447740508185965837690552500527637822603658699938581184514 --level 1 --trace-stack
storage
  0x0100000000000000000000000000000000000000000000000000000000000000
emitted operations
  
big_map diff
  
trace
  - location: 7 (just consumed gas: 4.387)
    [ (Pair 52435875175126190479447740508185965837690552500527637822603658699938581184514
            0x0100000000000000000000000000000000000000000000000000000000000000) ]
  - location: 7 (just consumed gas: 0.010)
    [ 52435875175126190479447740508185965837690552500527637822603658699938581184514
      0x0100000000000000000000000000000000000000000000000000000000000000 ]
  - location: 8 (just consumed gas: 0.299)
    [ 0x0100000000000000000000000000000000000000000000000000000000000000 ]
  - location: 9 (just consumed gas: 0.010)
    [ {}
      0x0100000000000000000000000000000000000000000000000000000000000000 ]
  - location: 11 (just consumed gas: 0.010)
    [ (Pair {} 0x0100000000000000000000000000000000000000000000000000000000000000) ]

