
./octez-client --protocol ProxfordLcjScHFgpTURyTjcKR88D5juu1jGgT18pPUoGTVgxiA --mode mockup --no-base-dir-warnings run script michelson_test_scripts/opcodes/map_size.tz on storage 111 and input '{ Elt "a" 1 ; Elt "b" 2 ; Elt "c" 3 ; Elt "d" 4 ; Elt "e" 5 ; Elt "f" 6 }' --level 1 --trace-stack
storage
  6
emitted operations
  
big_map diff
  
trace
  - location: 9 (just consumed gas: 6.556)
    [ (Pair { Elt "a" 1 ; Elt "b" 2 ; Elt "c" 3 ; Elt "d" 4 ; Elt "e" 5 ; Elt "f" 6 } 111) ]
  - location: 9 (just consumed gas: 0.010)
    [ { Elt "a" 1 ; Elt "b" 2 ; Elt "c" 3 ; Elt "d" 4 ; Elt "e" 5 ; Elt "f" 6 } ]
  - location: 10 (just consumed gas: 0.010)
    [ 6 ]
  - location: 11 (just consumed gas: 0.010)
    [ {}
      6 ]
  - location: 13 (just consumed gas: 0.010)
    [ (Pair {} 6) ]

