
./octez-client --protocol ProxfordLcjScHFgpTURyTjcKR88D5juu1jGgT18pPUoGTVgxiA --mode mockup --no-base-dir-warnings run script michelson_test_scripts/opcodes/get_and_update_map.tz on storage '(Pair (Some 4) {})' and input '"hello"' --level 1 --trace-stack
storage
  (Pair None { Elt "hello" 4 })
emitted operations
  
big_map diff
  
trace
  - location: 13 (just consumed gas: 8.079)
    [ (Pair "hello" (Some 4) {}) ]
  - location: 13 (just consumed gas: 0.010)
    [ "hello"
      (Pair (Some 4) {}) ]
  - location: 14 (just consumed gas: 0)
    [ (Pair (Some 4) {}) ]
  - location: 16 (just consumed gas: 0.010)
    [ (Some 4)
      {} ]
  - location: 14 (just consumed gas: 0.025)
    [ "hello"
      (Some 4)
      {} ]
  - location: 17 (just consumed gas: 0.095)
    [ None
      { Elt "hello" 4 } ]
  - location: 18 (just consumed gas: 0.010)
    [ (Pair None { Elt "hello" 4 }) ]
  - location: 19 (just consumed gas: 0.010)
    [ {}
      (Pair None { Elt "hello" 4 }) ]
  - location: 21 (just consumed gas: 0.010)
    [ (Pair {} None { Elt "hello" 4 }) ]

