
./octez-client --protocol ProxfordLcjScHFgpTURyTjcKR88D5juu1jGgT18pPUoGTVgxiA --mode mockup --no-base-dir-warnings run script michelson_test_scripts/opcodes/get_and_update_map.tz on storage '(Pair None { Elt "1" 1 ; Elt "2" 2 })' and input '"2"' --level 1 --trace-stack
storage
  (Pair (Some 2) { Elt "1" 1 })
emitted operations
  
big_map diff
  
trace
  - location: 13 (just consumed gas: 8.588)
    [ (Pair "2" None { Elt "1" 1 ; Elt "2" 2 }) ]
  - location: 13 (just consumed gas: 0.010)
    [ "2"
      (Pair None { Elt "1" 1 ; Elt "2" 2 }) ]
  - location: 14 (just consumed gas: 0)
    [ (Pair None { Elt "1" 1 ; Elt "2" 2 }) ]
  - location: 16 (just consumed gas: 0.010)
    [ None
      { Elt "1" 1 ; Elt "2" 2 } ]
  - location: 14 (just consumed gas: 0.025)
    [ "2"
      None
      { Elt "1" 1 ; Elt "2" 2 } ]
  - location: 17 (just consumed gas: 0.089)
    [ (Some 2)
      { Elt "1" 1 } ]
  - location: 18 (just consumed gas: 0.010)
    [ (Pair (Some 2) { Elt "1" 1 }) ]
  - location: 19 (just consumed gas: 0.010)
    [ {}
      (Pair (Some 2) { Elt "1" 1 }) ]
  - location: 21 (just consumed gas: 0.010)
    [ (Pair {} (Some 2) { Elt "1" 1 }) ]

