
./octez-client --protocol ProxfordLcjScHFgpTURyTjcKR88D5juu1jGgT18pPUoGTVgxiA --mode mockup --no-base-dir-warnings run script michelson_test_scripts/opcodes/or.tz on storage None and input '(Pair False True)' --level 1 --trace-stack
storage
  (Some True)
emitted operations
  
big_map diff
  
trace
  - location: 10 (just consumed gas: 8.115)
    [ (Pair (Pair False True) None) ]
  - location: 10 (just consumed gas: 0.010)
    [ (Pair False True) ]
  - location: 11 (just consumed gas: 0.010)
    [ (Pair False True)
      (Pair False True) ]
  - location: 12 (just consumed gas: 0.010)
    [ False
      (Pair False True) ]
  - location: 13 (just consumed gas: 0.010)
    [ (Pair False True)
      False ]
  - location: 14 (just consumed gas: 0.010)
    [ True
      False ]
  - location: 15 (just consumed gas: 0.010)
    [ True ]
  - location: 16 (just consumed gas: 0.010)
    [ (Some True) ]
  - location: 17 (just consumed gas: 0.010)
    [ {}
      (Some True) ]
  - location: 19 (just consumed gas: 0.010)
    [ (Pair {} (Some True)) ]

